Population Science - 6 Sentiment Analysis
…
Introduce TidyText with an example: We thus define the tidy text format as being a table with one-token-per-row. A token is a meaningful unit of text, such as a word, that we are interested in using for analysis, and tokenisation is the process of splitting text into tokens. This one-token-per-row structure is in contrast to the ways text is often stored in current analyses, perhaps as strings or in a document-term matrix. For tidy text mining, the token that is stored in each row is most often a single word, but can also be an n-gram, sentence, or paragraph. In the tidytext package, we provide functionality to tokenize by commonly used units of text like these and convert to a one-term-per-row format. Tidy data sets allow manipulation with a standard set of “tidy” tools,

# converting to a tidytext data representation
tidy_tweets_df <- tweets_df %>%
    select(created_at, text) %>%
    unnest_tokens("word", text)

In numeric data analysis, we normally look at the distribution of variables to gain a first understanding of the data. In text analysis, we explore the distribution of words. Typically we analyse the top words.

# ranking words
tidy_tweets_df %>% 
  count(word) %>% 
  arrange(desc(n))

# A tibble: 50,583 × 2
   word             n
   <chr>        <int>
 1 anonymous   102087
 2 the          47883
 3 to           36734
 4 http         29758
 5 url_removed  28382
 6 and          24126
 7 of           23356
 8 in           19748
 9 a            18451
10 is           16069
# … with 50,573 more rows
…
grep functions can also be very helpful in identifying a word and prefix in a string of words. We recommend consulting the Cheat Sheet for basic regular expressions in R put together by Ian Kopacka, to get familiar with the various character expressions and functions.

Unit of analysis

A key component in text data mining is the unit of analysis. We could focus our analysis on single words, individual sentences, paragraphs, sections, chapters or a larger corpus of text. The concept of here is relevant. The process of splitting text into units is known as tokenisation. Tokens are the resulting units of analysis. In the context of text data mining, n-grams is a popular tokenisation concept. This refers to a sequence of words of length n. A unigram is one word (e.g. migration). A bigram is a sequence of two words (migration can). A trigram is a sequence of three words (migration can have) and so on. n-grams can be useful when you want to capture the meaning of a sequence of words; for example, identifying “The United Kingdom” in a sequence of words. In R, we can use tidytext to organise the data according to n-grams.

Note

Note that the size of the chunk of text that we use to add up unigram sentiment scores can have an effect on an analysis. A text the size of many paragraphs can often have positive and negative sentiment averaged out to about zero, while sentence-sized or paragraph-sized text often works better. Similarly, small sections of text may not contain enough words to accurately estimate sentiment, while sentiment in very large sections may be difficult to identify.

tweets_df[1:50,] %>%
    select(created_at, text) %>%
    unnest_tokens(ngram, text, token = "ngrams", n = 2)

# A tibble: 1,369 × 2
   created_at          ngram              
   <dttm>              <chr>              
 1 2020-03-30 23:02:04 anonymous anonymous
 2 2020-03-30 23:02:04 anonymous anonymous
 3 2020-03-30 23:02:04 anonymous anonymous
 4 2020-03-30 23:02:04 anonymous anonymous
 5 2020-03-30 23:02:04 anonymous anonymous
 6 2020-03-30 23:02:04 anonymous anonymous
 7 2020-03-30 23:02:04 anonymous no       
 8 2020-03-30 23:02:04 no one             
 9 2020-03-30 23:02:04 one is             
10 2020-03-30 23:02:04 is above           
# … with 1,359 more rows
…
Word case

An additional element to consider is word case. Often all text is forced into lower case in quantitative text analysis as we do not want words starting with an upper case word such as “Migration” to be counted as a different word than “migration”. In this example, the difference between using lower or upper case words may not matter. Semantically, on other occasions (e.g. in a sentiment analysis context), this distinction may make all the difference. Consider “HAPPY” or “happy”. The former may emphasise that a person is much happier than in the latter case and we may want to capture the intensity of this emotion in our analysis. In such cases, we may be better off preserving the original text.

The unnest_tokens in the tidytext package automatically forces all words into lower case. To preserve upper case words, you will need to change the default options for to_lower to FALSE.

tweets_df[1:10,] %>%
    select(created_at, text) %>%
    unnest_tokens("word", 
                  text, 
                  to_lower = FALSE) # preserve upper case

# A tibble: 243 × 2
   created_at          word     
   <dttm>              <chr>    
 1 2020-03-30 23:02:04 anonymous
 2 2020-03-30 23:02:04 anonymous
 3 2020-03-30 23:02:04 anonymous
 4 2020-03-30 23:02:04 anonymous
 5 2020-03-30 23:02:04 anonymous
 6 2020-03-30 23:02:04 anonymous
 7 2020-03-30 23:02:04 anonymous
 8 2020-03-30 23:02:04 No       
 9 2020-03-30 23:02:04 one      
10 2020-03-30 23:02:04 is       
# … with 233 more rows
…
Coding characters

Typically we also want to remove coding characters, including links to websites. Words such as “https”, “t.co” and “amp” are common in webscrapped or social media text. The strings “https” and “t.co” appear as the top two more frequent words in our data. Generally such words do not convey relevant meaning for the analysis so they are removed. To do this, we can use grep.

tidy_tweets_df[-grep("https|t.co|amp",
                              tidy_tweets_df$word),] %>% 
  count(word) %>% 
  arrange(desc(n))

# A tibble: 47,991 × 2
   word              n
   <chr>         <int>
 1 anonymous    102087
 2 http          29758
 3 url_removed   28382
 4 immigration    9034
 5 covid19        6115
 6 coronavirus    5190
 7 china          5149
 8 people         4991
 9 chinesevirus   4963
10 chinavirus     4951
# … with 47,981 more rows

We could also use str_detect from the stringr package.

coding_words <- c("https|t.co|amp")

tidy_tweets_df <- tidy_tweets_df %>%
  filter(!str_detect(word, coding_words)) 

tidy_tweets_df %>% 
  count(word) %>% 
  arrange(desc(n))

# A tibble: 47,991 × 2
   word              n
   <chr>         <int>
 1 anonymous    102087
 2 http          29758
 3 url_removed   28382
 4 immigration    9034
 5 covid19        6115
 6 coronavirus    5190
 7 china          5149
 8 people         4991
 9 chinesevirus   4963
10 chinavirus     4951
# … with 47,981 more rows
…
The package tidytext provides access to all three lexicons. The nrc lexicon classifies words in a binary way into categories of positive, negative, anger, anticipation, disgust, fear, joy, sadness, surprise and trust. nrc constructed via Amazon Mechanical Turk (i.e. people manually labelling the emotional valence of words). The bing lexicon classifies words in a binary classification of positive and negative, and is based on words identified on online forums. The AFINN lexicon assigns words with a score ranging between -5 and 5 to capture the intensity of negative and positive sentiment.AFINN includes a list of sentiment-laden words used during discussions about climate change on Twitter.

Note

Note that not all words are in the lexicons and they only contain words in the English language.

In R, we can browse the content of each lexicon using the get_sentiment function from tidytext.

Note

Note that you may need to authorise the download of the lexicons on your console

get_sentiments("nrc")

# A tibble: 13,872 × 2
   word        sentiment
   <chr>       <chr>    
 1 abacus      trust    
 2 abandon     fear     
 3 abandon     negative 
 4 abandon     sadness  
 5 abandoned   anger    
 6 abandoned   fear     
 7 abandoned   negative 
 8 abandoned   sadness  
 9 abandonment anger    
10 abandonment fear     
# … with 13,862 more rows

get_sentiments("bing")

# A tibble: 6,786 × 2
   word        sentiment
   <chr>       <chr>    
 1 2-faces     negative 
 2 abnormal    negative 
 3 abolish     negative 
 4 abominable  negative 
 5 abominably  negative 
 6 abominate   negative 
 7 abomination negative 
 8 abort       negative 
 9 aborted     negative 
10 aborts      negative 
# … with 6,776 more rows

get_sentiments("afinn") 

# A tibble: 2,477 × 2
   word       value
   <chr>      <dbl>
 1 abandon       -2
 2 abandoned     -2
 3 abandons      -2
 4 abducted      -2
 5 abduction     -2
 6 abductions    -2
 7 abhor         -3
 8 abhorred      -3
 9 abhorrent     -3
10 abhors        -3
# … with 2,467 more rows
…
