4 Sequence Analysis – Population Data Science
…
# transform from long to wide format
wide_population_loss_df <- population_loss_df %>% 
  as_tibble() %>% 
  group_by(GID_2) %>% 
  arrange(year, .by_group = TRUE ) %>%
  ungroup() %>% 
  tidyr::pivot_wider(
  id_cols =  GID_2,
  names_from = "year",
  values_from = "pop_class"
)
  
wide_population_loss_df

# A tibble: 571 × 21
   GID_2   `2001` `2002` `2003` `2004` `2005` `2006` `2007` `2008` `2009` `2010`
   <chr>   <chr>  <chr>  <chr>  <chr>  <chr>  <chr>  <chr>  <chr>  <chr>  <chr> 
 1 UKR.1.… decli… moder… decli… decli… decli… moder… moder… moder… moder… moder…
 2 UKR.1.… moder… moder… moder… moder… moder… moder… moder… moder… moder… moder…
 3 UKR.1.… moder… moder… moder… moder… moder… moder… moder… moder… moder… moder…
 4 UKR.1.… decli… decli… moder… decli… moder… moder… moder… moder… moder… moder…
 5 UKR.1.… decli… decli… moder… decli… moder… moder… moder… moder… moder… moder…
 6 UKR.1.… moder… moder… moder… moder… moder… moder… moder… moder… moder… moder…
 7 UKR.1.… moder… moder… moder… moder… moder… moder… moder… moder… moder… moder…
 8 UKR.1.… moder… moder… moder… moder… moder… moder… moder… moder… moder… moder…
 9 UKR.1.… decli… decli… decli… decli… decli… decli… decli… decli… moder… decli…
10 UKR.1.… moder… stable moder… moder… stable moder… moder… stable decli… stable
# ℹ 561 more rows
# ℹ 10 more variables: `2011` <chr>, `2012` <chr>, `2013` <chr>, `2014` <chr>,
#   `2015` <chr>, `2016` <chr>, `2017` <chr>, `2018` <chr>, `2019` <chr>,
#   `2020` <chr>
…
4.4 Questions

For the first assignment, we will continue to focus on London as our area of analysis. We will use population count estimates from the Office of National Statistics (ONS). The dataset provides information on area, population numbers and population density at national, regional and smaller sub-national area level, including Unitary Authority, Metropolitan County, Metropolitan District, County, Non-metropolitan District, London Borough, Council Area and Local Government District for the period from 2001 to 2020.

pop_df <- read_csv("./data/sequence-analysis/population_uk/population-uk-2011_20.csv")
pop_df

# A tibble: 420 × 44
   Code      Name              Geography   `Area (sq km)` Estimated population…¹
   <chr>     <chr>             <chr>                <dbl>                  <dbl>
 1 K02000001 UNITED KINGDOM    Country           242741.                67081234
 2 K03000001 GREAT BRITAIN     Country           228948.                65185724
 3 K04000001 ENGLAND AND WALES Country           151047.                59719724
 4 E92000001 ENGLAND           Country           130310.                56550138
 5 E12000001 NORTH EAST        Region              8581.                 2680763
 6 E06000047 County Durham     Unitary Au…         2226.                  533149
 7 E06000005 Darlington        Unitary Au…          197.                  107402
 8 E06000001 Hartlepool        Unitary Au…           93.7                  93836
 9 E06000002 Middlesbrough     Unitary Au…           53.9                 141285
10 E06000057 Northumberland    Unitary Au…         5020.                  323820
# ℹ 410 more rows
# ℹ abbreviated name: ¹​`Estimated population mid-2020`
# ℹ 39 more variables: `2020 people per sq. km` <dbl>,
#   `Estimated Population mid-2019` <dbl>, `2019 people per sq. km` <dbl>,
#   `Estimated Population mid-2018` <dbl>, `2018 people per sq. km` <dbl>,
#   `Estimated Population mid-2017` <dbl>, `2017 people per sq. km` <dbl>,
#   `Estimated Population mid-2016` <dbl>, `2016 people per sq. km` <dbl>, …
…
