7 Topic Modelling – Population Data Science
…
Reddit_topic_model

A LDA_VEM topic model with 5 topics.

Fitting the model was the “easy part”: the rest of the analysis will involve exploring and interpreting the model using tidy functions from the tidytext package.

7.3.1 Word-topic probabilities

We can use the tidy() function, originally from the broom package Robinson 2017, for tidying model objects. The tidytext package provides this method for extracting the per-topic-per-word probabilities, called β (“beta”), from the model.

ap_topics <- tidy(Reddit_topic_model, matrix = "beta")
ap_topics

# A tibble: 162,320 × 3
   topic term       beta
   <int> <chr>     <dbl>
 1     1 carri 0.000567 
 2     2 carri 0.00115  
 3     3 carri 0.0000683
 4     4 carri 0.000402 
 5     5 carri 0.00117  
 6     1 deal  0.000830 
 7     2 deal  0.00164  
 8     3 deal  0.00203  
 9     4 deal  0.000326 
10     5 deal  0.000681 
# ℹ 162,310 more rows
…
We can consider the terms that had the greatest difference in β between Topic 1 and Topic 3. This can be estimated based on the log ratio of the two: \(\log_2(\frac{\beta_2}{\beta_1})\) (a log ratio is useful because it makes the difference symmetrical: \(\beta_2\) being twice as large leads to a log ratio of 1, while \(\beta_1\) being twice as large results in -1). To make sure we pick up relevant words, we can filter for relatively common words, such as those that have a \(\beta\) greater than 1/1000 in at least one topic.

ap_topics <- ap_topics %>%
  filter(topic == 1 | topic == 5) # Keeping just the topics of interest

beta_wide <- ap_topics %>%
  mutate(topic = paste0("topic", topic)) %>%
  pivot_wider(names_from = topic, values_from = beta) %>% 
  filter(topic1 > .001 | topic5 > .001) %>% # Beta greater than 1/1000 in at least one topic
  mutate(log_ratio = log2(topic5 / topic1)) # Calculate Log ratio

beta_wide

# A tibble: 275 × 4
   term     topic1    topic5 log_ratio
   <chr>     <dbl>     <dbl>     <dbl>
 1 carri  0.000567 0.00117       1.05 
 2 lot    0.00574  0.000850     -2.76 
 3 run    0.00134  0.0000847    -3.98 
 4 child  0.0206   0.00159      -3.70 
 5 enjoy  0.000929 0.00102       0.131
 6 fertil 0.00430  0.00362      -0.249
 7 grow   0.00193  0.00236       0.289
 8 hous   0.00166  0.000110     -3.92 
 9 life   0.00923  0.00209      -2.14 
10 mean   0.000899 0.00118       0.396
# ℹ 265 more rows
…
